<svg xmlns="http://www.w3.org/2000/svg" width="180" height="10" viewBox="0 0 180 10" version="1.1">
	<path fill-opacity="0.286" d="M 1.378 2.465 C 0.501 3.107, -0.050 4.502, 0.155 5.566 C 0.460 7.152, 1.425 7.519, 5.513 7.604 C 8.256 7.661, 11.288 7.307, 12.250 6.818 C 13.469 6.199, 14.005 6.320, 14.015 7.215 C 14.026 8.121, 14.321 8.057, 15.015 7 C 15.665 6.010, 16.255 5.858, 16.750 6.552 C 17.553 7.679, 23.005 7.733, 24.786 6.632 C 25.378 6.267, 26.075 6.312, 26.335 6.734 C 26.875 7.607, 44.086 7.473, 48.250 6.562 C 49.763 6.231, 51 6.307, 51 6.730 C 51 7.154, 54.937 7.554, 59.750 7.620 C 64.562 7.685, 69.400 7.776, 70.500 7.822 C 80.018 8.218, 124.776 7.285, 125.750 6.671 C 126.438 6.237, 127 6.284, 127 6.776 C 127 8.351, 142.589 7.815, 150.171 5.981 C 155.983 4.575, 156.776 4.184, 154 4.092 C 152.075 4.028, 148.209 3.366, 145.409 2.620 C 140.472 1.306, 132.518 1.149, 131.324 2.343 C 131.001 2.665, 129.896 2.480, 128.869 1.930 C 127.585 1.243, 127 1.265, 127 2 C 127 2.735, 126.415 2.757, 125.131 2.070 C 124.104 1.520, 122.993 1.341, 122.662 1.671 C 122.332 2.002, 117.885 2.186, 112.781 2.080 C 107.676 1.975, 102.825 1.880, 102 1.870 C 99.519 1.841, 90.674 2.006, 88 2.132 C 85.543 2.248, 76.912 2.210, 72 2.061 C 70.625 2.020, 65.562 2.102, 60.750 2.243 C 55.612 2.394, 51.826 2.087, 51.579 1.500 C 51.347 0.950, 51.122 1.314, 51.079 2.309 C 51.028 3.479, 50.564 3.849, 49.768 3.356 C 48.243 2.414, 46.151 2.178, 38.500 2.085 C 25.874 1.931, 17 2.444, 17 3.327 C 17 3.832, 16.325 3.685, 15.500 3 C 14.291 1.996, 13.997 2.021, 13.985 3.128 C 13.974 4.074, 13.741 4.149, 13.235 3.368 C 12.176 1.736, 3.300 1.060, 1.378 2.465" stroke="none" fill="black" fill-rule="evenodd"/>
	<path fill-opacity="0.033" d="M 32.573 1.895 C 30.920 2.543, 30.873 2.737, 32.240 3.262 C 33.164 3.617, 34.066 3.270, 34.386 2.437 C 34.689 1.647, 34.839 1.032, 34.719 1.070 C 34.598 1.109, 33.633 1.480, 32.573 1.895 M 88.500 2 C 88.160 2.550, 88.359 3, 88.941 3 C 89.523 3, 90 2.550, 90 2 C 90 1.450, 89.802 1, 89.559 1 C 89.316 1, 88.840 1.450, 88.500 2 M 100.537 1.939 C 100.218 2.456, 100.835 2.813, 101.909 2.732 C 102.983 2.651, 103.641 2.228, 103.372 1.792 C 102.707 0.717, 101.246 0.793, 100.537 1.939 M 127 1.892 C 127 2.566, 126.480 2.797, 125.845 2.405 C 125.101 1.945, 124.964 2.132, 125.458 2.933 C 126.004 3.815, 126.536 3.864, 127.296 3.104 C 127.885 2.515, 128.059 1.726, 127.683 1.350 C 127.308 0.974, 127 1.218, 127 1.892 M 136.813 1.683 C 137.534 1.972, 138.397 1.936, 138.729 1.604 C 139.061 1.272, 138.471 1.036, 137.417 1.079 C 136.252 1.127, 136.015 1.364, 136.813 1.683 M 140 2 C 140 2.550, 140.477 3, 141.059 3 C 141.641 3, 141.840 2.550, 141.500 2 C 141.160 1.450, 140.684 1, 140.441 1 C 140.198 1, 140 1.450, 140 2 M 8.920 3.094 C 10.522 3.734, 11.687 3.713, 12.370 3.030 C 13.077 2.323, 12.318 2.020, 9.950 2.063 C 6.708 2.123, 6.646 2.185, 8.920 3.094 M 23.955 3.354 C 24.426 3.825, 25.616 3.755, 26.614 3.196 C 28.167 2.327, 28.048 2.207, 25.761 2.343 C 24.293 2.430, 23.484 2.882, 23.955 3.354 M 41 2.383 C 41 3.271, 45.046 3.735, 45.558 2.906 C 45.866 2.408, 44.966 2, 43.559 2 C 42.152 2, 41 2.173, 41 2.383 M 47.500 3 C 47.160 3.550, 47.359 4, 47.941 4 C 48.523 4, 49 3.550, 49 3 C 49 2.450, 48.802 2, 48.559 2 C 48.316 2, 47.840 2.450, 47.500 3 M 61.813 2.683 C 62.534 2.972, 63.397 2.936, 63.729 2.604 C 64.061 2.272, 63.471 2.036, 62.417 2.079 C 61.252 2.127, 61.015 2.364, 61.813 2.683 M 114.510 3.016 C 114.856 3.575, 115.557 3.774, 116.069 3.457 C 117.456 2.600, 117.198 2, 115.441 2 C 114.584 2, 114.165 2.457, 114.510 3.016 M 10.500 5.890 C 8.545 6.315, 7.928 6.812, 8.729 7.317 C 9.405 7.744, 10.832 7.625, 11.899 7.054 C 13.318 6.295, 13.973 6.349, 14.340 7.258 C 14.636 7.990, 14.874 7.782, 14.921 6.750 C 14.964 5.787, 14.662 5.053, 14.250 5.118 C 13.838 5.183, 12.150 5.530, 10.500 5.890 M 27 6.906 C 27 7.405, 27.900 7.577, 29 7.290 C 30.100 7.002, 31 6.594, 31 6.383 C 31 6.173, 30.100 6, 29 6 C 27.900 6, 27 6.408, 27 6.906 M 44 6.969 C 44 7.501, 44.675 7.678, 45.500 7.362 C 46.325 7.045, 47 6.609, 47 6.393 C 47 6.177, 46.325 6, 45.500 6 C 44.675 6, 44 6.436, 44 6.969 M 107.484 7.032 C 106.045 7.555, 106.530 7.760, 109.250 7.777 C 111.313 7.790, 113 7.672, 113 7.517 C 113 6.732, 109.221 6.400, 107.484 7.032 M 122.500 7 C 122.160 7.550, 122.610 8, 123.500 8 C 124.390 8, 124.840 7.550, 124.500 7 C 124.160 6.450, 123.710 6, 123.500 6 C 123.290 6, 122.840 6.450, 122.500 7 M 3.750 7.662 C 4.438 7.940, 5.563 7.940, 6.250 7.662 C 6.938 7.385, 6.375 7.158, 5 7.158 C 3.625 7.158, 3.063 7.385, 3.750 7.662 M 69.613 8.183 C 69.902 8.650, 70.557 8.774, 71.069 8.457 C 72.377 7.649, 72.230 7.333, 70.544 7.333 C 69.743 7.333, 69.324 7.716, 69.613 8.183 M 127.813 7.683 C 128.534 7.972, 129.397 7.936, 129.729 7.604 C 130.061 7.272, 129.471 7.036, 128.417 7.079 C 127.252 7.127, 127.015 7.364, 127.813 7.683" stroke="none" fill="black" fill-rule="evenodd"/>
</svg>