<svg xmlns="http://www.w3.org/2000/svg" width="180" height="10" viewBox="0 0 180 10" version="1.1">
	<path fill-opacity="0.286" d="M 70 2.908 C 70 3.433, 55.565 3.836, 35.750 3.864 C -4.378 3.920, -0.235 3.811, 0.370 4.789 C 0.638 5.224, 16.415 5.561, 35.429 5.539 C 62.440 5.509, 70 5.773, 70 6.750 C 70 8.294, 71.641 8.390, 72.562 6.899 C 72.946 6.278, 74.481 6.046, 76.083 6.367 C 77.654 6.681, 79.219 6.455, 79.586 5.860 C 80.052 5.107, 80.460 5.126, 80.953 5.925 C 81.412 6.666, 82.459 6.766, 83.961 6.210 C 85.229 5.741, 88.344 5.679, 90.883 6.072 C 93.637 6.497, 96.004 6.376, 96.750 5.770 C 97.438 5.212, 98 5.160, 98 5.654 C 98 6.728, 106.035 6.714, 107.779 5.637 C 108.450 5.222, 109 5.250, 109 5.700 C 109 6.732, 144.282 6.355, 153 5.231 L 159.500 4.392 150 3.741 C 144.775 3.383, 125.270 3.182, 106.654 3.295 C 88.039 3.408, 72.600 3.163, 72.345 2.750 C 71.696 1.699, 70 1.813, 70 2.908" stroke="none" fill="black" fill-rule="evenodd"/>
	<path fill-opacity="0.033" d="M 59.750 5.662 C 60.438 5.940, 61.563 5.940, 62.250 5.662 C 62.938 5.385, 62.375 5.158, 61 5.158 C 59.625 5.158, 59.063 5.385, 59.750 5.662 M 71 7 C 70.099 7.582, 69.975 7.975, 70.691 7.985 C 71.346 7.993, 72.160 7.550, 72.500 7 C 73.267 5.758, 72.921 5.758, 71 7" stroke="none" fill="black" fill-rule="evenodd"/>
</svg>