<svg xmlns="http://www.w3.org/2000/svg" width="180" height="10" viewBox="0 0 180 10" version="1.1">
	<path fill-opacity="0.286" d="M 14.910 2.217 C 12.484 2.611, 9.600 3.139, 8.500 3.390 C 7.400 3.641, 5.863 3.881, 5.083 3.923 C 3.521 4.008, 4.350 5.225, 6.279 5.678 C 12.913 7.236, 18.466 8.035, 19.609 7.597 C 20.374 7.303, 21 7.525, 21 8.090 C 21 8.656, 21.476 8.824, 22.058 8.464 C 23.681 7.461, 62.931 7.079, 63.537 8.061 C 63.836 8.544, 65.083 8.539, 66.369 8.050 C 67.633 7.569, 69.149 7.474, 69.737 7.838 C 72.086 9.291, 104.766 7.873, 121 5.614 L 129.500 4.431 121 3.692 C 116.325 3.286, 111.150 2.724, 109.500 2.444 C 104.486 1.594, 65.211 1.230, 61.026 1.995 C 58.641 2.431, 56.699 2.299, 56.056 1.656 C 55.315 0.915, 55 0.930, 55 1.706 C 55 2.315, 54.213 2.631, 53.250 2.408 C 49.971 1.651, 19.335 1.497, 14.910 2.217" stroke="none" fill="black" fill-rule="evenodd"/>
	<path fill-opacity="0.033" d="M 38.500 2 C 38.160 2.550, 38.359 3, 38.941 3 C 39.523 3, 40 2.550, 40 2 C 40 1.450, 39.802 1, 39.559 1 C 39.316 1, 38.840 1.450, 38.500 2 M 11.813 6.683 C 12.534 6.972, 13.397 6.936, 13.729 6.604 C 14.061 6.272, 13.471 6.036, 12.417 6.079 C 11.252 6.127, 11.015 6.364, 11.813 6.683 M 23.813 7.683 C 24.534 7.972, 25.397 7.936, 25.729 7.604 C 26.061 7.272, 25.471 7.036, 24.417 7.079 C 23.252 7.127, 23.015 7.364, 23.813 7.683 M 39.813 7.683 C 40.534 7.972, 41.397 7.936, 41.729 7.604 C 42.061 7.272, 41.471 7.036, 40.417 7.079 C 39.252 7.127, 39.015 7.364, 39.813 7.683 M 69 7.393 C 69 7.609, 69.698 8.054, 70.552 8.382 C 71.442 8.723, 71.843 8.555, 71.493 7.989 C 70.906 7.038, 69 6.583, 69 7.393 M 99.813 7.683 C 100.534 7.972, 101.397 7.936, 101.729 7.604 C 102.061 7.272, 101.471 7.036, 100.417 7.079 C 99.252 7.127, 99.015 7.364, 99.813 7.683" stroke="none" fill="black" fill-rule="evenodd"/>
</svg>