<svg xmlns="http://www.w3.org/2000/svg" width="180" height="10" viewBox="0 0 180 10" version="1.1">
	<path fill-opacity="0.286" d="M 8.750 2.816 C 7.237 2.990, 6 3.750, 6 4.505 C 6 6.237, 13.321 7.416, 20.056 6.769 C 22.878 6.497, 25 6.706, 25 7.254 C 25 7.782, 25.788 7.893, 26.750 7.500 C 28.169 6.920, 50.426 6.379, 92 5.912 C 94.475 5.884, 104.825 5.936, 115 6.027 C 125.175 6.118, 135.300 5.812, 137.500 5.347 L 141.500 4.502 135.500 3.976 C 132.200 3.687, 120.506 3.535, 109.513 3.639 C 98.519 3.743, 86.457 3.500, 82.707 3.099 C 78.957 2.698, 75.651 2.755, 75.360 3.226 C 75.070 3.696, 73.930 3.795, 72.828 3.445 C 71.726 3.096, 67.376 2.864, 63.162 2.931 C 52.057 3.108, 43.424 3.070, 26.500 2.768 C 18.250 2.620, 10.262 2.642, 8.750 2.816" stroke="none" fill="black" fill-rule="evenodd"/>
	<path fill-opacity="0.033" d="M 16.813 2.683 C 17.534 2.972, 18.397 2.936, 18.729 2.604 C 19.061 2.272, 18.471 2.036, 17.417 2.079 C 16.252 2.127, 16.015 2.364, 16.813 2.683 M 24.655 2.750 C 24.400 3.163, 25.230 3.500, 26.500 3.500 C 27.770 3.500, 28.600 3.163, 28.345 2.750 C 27.746 1.780, 25.254 1.780, 24.655 2.750 M 35.800 3.200 C 36.733 4.133, 37.267 4.133, 38.200 3.200 C 39.133 2.267, 38.867 2, 37 2 C 35.133 2, 34.867 2.267, 35.800 3.200 M 63.982 3.011 C 63.397 3.373, 64.736 3.740, 66.959 3.827 C 69.181 3.914, 71 3.815, 71 3.606 C 71 2.869, 65.031 2.363, 63.982 3.011 M 105.813 3.683 C 106.534 3.972, 107.397 3.936, 107.729 3.604 C 108.061 3.272, 107.471 3.036, 106.417 3.079 C 105.252 3.127, 105.015 3.364, 105.813 3.683 M 116.250 3.716 C 117.763 3.945, 120.237 3.945, 121.750 3.716 C 123.263 3.487, 122.025 3.300, 119 3.300 C 115.975 3.300, 114.737 3.487, 116.250 3.716 M 12.750 6.662 C 13.438 6.940, 14.563 6.940, 15.250 6.662 C 15.938 6.385, 15.375 6.158, 14 6.158 C 12.625 6.158, 12.063 6.385, 12.750 6.662 M 25.509 6.985 C 25.129 7.600, 26.139 7.734, 28.200 7.341 C 32.622 6.499, 33.003 6, 29.226 6 C 27.516 6, 25.844 6.443, 25.509 6.985 M 35.750 6.662 C 36.438 6.940, 37.563 6.940, 38.250 6.662 C 38.938 6.385, 38.375 6.158, 37 6.158 C 35.625 6.158, 35.063 6.385, 35.750 6.662 M 59.813 6.683 C 60.534 6.972, 61.397 6.936, 61.729 6.604 C 62.061 6.272, 61.471 6.036, 60.417 6.079 C 59.252 6.127, 59.015 6.364, 59.813 6.683 M 121.813 6.683 C 122.534 6.972, 123.397 6.936, 123.729 6.604 C 124.061 6.272, 123.471 6.036, 122.417 6.079 C 121.252 6.127, 121.015 6.364, 121.813 6.683" stroke="none" fill="black" fill-rule="evenodd"/>
</svg>