<svg xmlns="http://www.w3.org/2000/svg" width="180" height="10" viewBox="0 0 180 10" version="1.1">
	<path fill-opacity="0.286" d="M 44 2.313 C 44 3.164, 42.846 3.728, 41 3.781 C 39.350 3.828, 38 3.420, 38 2.874 C 38 2.328, 37.474 2.207, 36.831 2.604 C 35.114 3.666, 30.827 3.795, 28.250 2.863 C 26.899 2.374, 26 2.439, 26 3.025 C 26 3.561, 25.325 4, 24.500 4 C 23.675 4, 23 3.663, 22.999 3.250 C 22.998 2.272, 14.402 2.272, 13.420 3.250 C 13.006 3.663, 11.279 4.047, 9.583 4.103 C 6.522 4.206, 6.527 4.214, 10.250 5.203 C 12.312 5.750, 14 6.626, 14 7.148 C 14 8.274, 21.988 7.254, 23.592 5.923 C 24.193 5.425, 24.954 5.288, 25.285 5.618 C 26.228 6.562, 38.088 6.667, 38.663 5.737 C 38.946 5.278, 39.769 5.394, 40.492 5.993 C 41.456 6.793, 41.946 6.740, 42.335 5.792 C 42.674 4.967, 43.110 5.305, 43.543 6.726 C 44.077 8.481, 44.593 8.753, 45.979 8.011 C 46.946 7.494, 48.021 7.355, 48.369 7.702 C 48.716 8.049, 49 7.760, 49 7.060 C 49 6.294, 49.649 6.035, 50.627 6.410 C 51.521 6.754, 52.871 6.522, 53.627 5.895 C 54.382 5.268, 55 5.148, 55 5.628 C 54.999 6.107, 58.262 6.449, 62.250 6.387 C 66.590 6.319, 69.795 6.721, 70.235 7.387 C 70.744 8.159, 70.974 8.106, 70.985 7.215 C 70.995 6.316, 71.526 6.200, 72.750 6.828 C 74.978 7.971, 81.836 7.381, 83.630 5.892 C 84.384 5.267, 85 5.148, 85 5.628 C 84.999 6.558, 97.047 6.692, 98.585 5.778 C 99.974 4.954, 103.998 6.761, 104.015 8.218 C 104.026 9.097, 104.261 9.154, 104.765 8.399 C 105.800 6.848, 110.996 6.008, 111.015 7.389 C 111.025 8.101, 111.312 8.057, 111.816 7.264 C 112.535 6.131, 116.519 6.177, 124.500 7.408 C 125.600 7.578, 126.789 7.270, 127.143 6.723 C 127.563 6.072, 128.892 6.115, 130.991 6.847 C 133.308 7.655, 134.760 7.663, 136.226 6.879 C 137.342 6.282, 141.910 5.511, 146.377 5.166 L 154.500 4.538 145.305 3.937 C 140.248 3.607, 135.451 2.789, 134.644 2.120 C 133.631 1.279, 132.975 1.232, 132.520 1.968 C 132.158 2.553, 131.474 2.793, 131 2.500 C 130.526 2.207, 129.813 2.493, 129.416 3.135 C 128.909 3.956, 128.295 3.756, 127.347 2.460 C 126.606 1.447, 126 1.063, 126 1.608 C 126 2.157, 124.389 2.410, 122.385 2.176 C 120.027 1.901, 118.462 2.232, 117.885 3.127 C 117.139 4.285, 116.862 4.286, 116.121 3.137 C 115.446 2.090, 115.146 2.063, 114.826 3.021 C 114.524 3.927, 113.945 3.802, 112.705 2.562 C 111.767 1.625, 111 1.270, 111 1.774 C 111 2.826, 106.452 2.785, 105.390 1.723 C 105.002 1.335, 104.036 1.555, 103.244 2.212 C 101.378 3.761, 98.257 4.224, 97.537 3.060 C 97.206 2.525, 95.727 2.505, 93.961 3.011 C 91.013 3.857, 87.901 3.675, 86.082 2.550 C 85.581 2.241, 84.942 2.553, 84.662 3.244 C 84.266 4.220, 83.938 4.193, 83.188 3.122 C 82.658 2.364, 81.787 2.013, 81.254 2.343 C 80.721 2.672, 78.921 2.551, 77.255 2.073 C 74.945 1.411, 73.841 1.587, 72.612 2.816 C 71.263 4.166, 70.998 4.190, 70.985 2.964 C 70.971 1.700, 70.824 1.705, 69.909 3 C 69.116 4.121, 68.720 4.186, 68.343 3.258 C 68.020 2.462, 67.239 2.313, 66.169 2.845 C 63.444 4.198, 49.884 3.426, 48.893 1.861 C 48.229 0.813, 48.027 0.795, 48.015 1.785 C 48.004 2.760, 47.517 2.812, 46 2 C 44.448 1.169, 44 1.240, 44 2.313" stroke="none" fill="black" fill-rule="evenodd"/>
	<path fill-opacity="0.033" d="M 81.500 3 C 81.840 3.550, 82.316 4, 82.559 4 C 82.802 4, 83 3.550, 83 3 C 83 2.450, 82.523 2, 81.941 2 C 81.359 2, 81.160 2.450, 81.500 3 M 120.750 2.662 C 121.438 2.940, 122.563 2.940, 123.250 2.662 C 123.938 2.385, 123.375 2.158, 122 2.158 C 120.625 2.158, 120.063 2.385, 120.750 2.662 M 92.750 3.662 C 93.438 3.940, 94.563 3.940, 95.250 3.662 C 95.938 3.385, 95.375 3.158, 94 3.158 C 92.625 3.158, 92.063 3.385, 92.750 3.662 M 147.813 4.683 C 148.534 4.972, 149.397 4.936, 149.729 4.604 C 150.061 4.272, 149.471 4.036, 148.417 4.079 C 147.252 4.127, 147.015 4.364, 147.813 4.683 M 52 6 C 51.099 6.582, 50.975 6.975, 51.691 6.985 C 52.346 6.993, 53.160 6.550, 53.500 6 C 54.267 4.758, 53.921 4.758, 52 6 M 67.507 5.989 C 67.157 6.555, 67.558 6.723, 68.448 6.382 C 70.180 5.717, 70.497 5, 69.059 5 C 68.541 5, 67.843 5.445, 67.507 5.989 M 44.658 7.449 C 44.287 8.416, 44.582 8.714, 45.545 8.344 C 46.339 8.040, 46.740 7.388, 46.435 6.895 C 45.669 5.655, 45.303 5.769, 44.658 7.449" stroke="none" fill="black" fill-rule="evenodd"/>
</svg>