<svg xmlns="http://www.w3.org/2000/svg" width="180" height="10" viewBox="0 0 180 10" version="1.1">
	<path fill-opacity="0.286" d="M 70 2.649 C 70 3.972, 67.432 4.061, 49.250 3.374 C 26.369 2.510, 23.292 2.527, 17.639 3.547 C 13.341 4.324, 14.421 5.958, 19.250 5.985 C 20.762 5.993, 22 6.459, 22 7.020 C 22 7.584, 23.217 7.818, 24.725 7.545 C 26.223 7.273, 34.661 6.804, 43.475 6.503 C 52.289 6.201, 61.640 5.709, 64.255 5.409 C 67.998 4.980, 69.139 5.198, 69.612 6.432 C 70.003 7.449, 71.057 7.847, 72.615 7.565 C 73.935 7.325, 84.256 6.836, 95.550 6.478 C 110.654 5.998, 116.460 6.137, 117.502 7.001 C 118.297 7.662, 120.141 7.914, 121.709 7.576 C 123.244 7.245, 128.580 6.772, 133.566 6.523 C 138.552 6.275, 143.719 5.669, 145.049 5.178 C 147.604 4.232, 144.963 3.829, 127.025 2.425 C 122.914 2.104, 119.240 1.649, 118.861 1.414 C 118.481 1.179, 118.020 1.413, 117.835 1.933 C 117.487 2.916, 93.554 4.221, 92.640 3.307 C 92.355 3.022, 88.471 2.798, 84.010 2.810 C 79.549 2.822, 74.572 2.451, 72.950 1.986 C 70.613 1.315, 70 1.453, 70 2.649" stroke="none" fill="black" fill-rule="evenodd"/>
	<path fill-opacity="0.033" d="M 24.269 2.693 C 25.242 2.947, 26.592 2.930, 27.269 2.656 C 27.946 2.382, 27.150 2.175, 25.500 2.195 C 23.850 2.215, 23.296 2.439, 24.269 2.693 M 72.813 2.683 C 73.534 2.972, 74.397 2.936, 74.729 2.604 C 75.061 2.272, 74.471 2.036, 73.417 2.079 C 72.252 2.127, 72.015 2.364, 72.813 2.683 M 122.269 2.693 C 123.242 2.947, 124.592 2.930, 125.269 2.656 C 125.946 2.382, 125.150 2.175, 123.500 2.195 C 121.850 2.215, 121.296 2.439, 122.269 2.693 M 141.813 5.683 C 142.534 5.972, 143.397 5.936, 143.729 5.604 C 144.061 5.272, 143.471 5.036, 142.417 5.079 C 141.252 5.127, 141.015 5.364, 141.813 5.683 M 36.813 6.683 C 37.534 6.972, 38.397 6.936, 38.729 6.604 C 39.061 6.272, 38.471 6.036, 37.417 6.079 C 36.252 6.127, 36.015 6.364, 36.813 6.683 M 41.813 6.683 C 42.534 6.972, 43.397 6.936, 43.729 6.604 C 44.061 6.272, 43.471 6.036, 42.417 6.079 C 41.252 6.127, 41.015 6.364, 41.813 6.683 M 75.750 6.662 C 76.438 6.940, 77.563 6.940, 78.250 6.662 C 78.938 6.385, 78.375 6.158, 77 6.158 C 75.625 6.158, 75.063 6.385, 75.750 6.662 M 84.750 6.706 C 85.987 6.944, 88.013 6.944, 89.250 6.706 C 90.487 6.467, 89.475 6.272, 87 6.272 C 84.525 6.272, 83.513 6.467, 84.750 6.706 M 132.813 6.683 C 133.534 6.972, 134.397 6.936, 134.729 6.604 C 135.061 6.272, 134.471 6.036, 133.417 6.079 C 132.252 6.127, 132.015 6.364, 132.813 6.683 M 119.813 7.683 C 120.534 7.972, 121.397 7.936, 121.729 7.604 C 122.061 7.272, 121.471 7.036, 120.417 7.079 C 119.252 7.127, 119.015 7.364, 119.813 7.683" stroke="none" fill="black" fill-rule="evenodd"/>
</svg>