<svg xmlns="http://www.w3.org/2000/svg" width="180" height="10" viewBox="0 0 180 10" version="1.1">
	<path fill-opacity="0.286" d="M 3.250 1.810 C 1.487 2.068, 1 2.792, 1 5.154 L 1 8.170 16.984 7.654 C 25.775 7.370, 33.387 6.879, 33.899 6.563 C 34.410 6.246, 34.980 6.404, 35.165 6.914 C 35.370 7.481, 37.242 7.479, 40 6.909 C 42.475 6.397, 59.222 5.690, 77.216 5.339 C 102.852 4.837, 110.262 4.972, 111.453 5.961 C 112.349 6.704, 113.700 6.910, 114.737 6.460 C 115.707 6.040, 120.100 5.385, 124.500 5.003 L 132.500 4.310 124.500 4.129 C 120.100 4.029, 99.625 3.847, 79 3.724 C 52.838 3.568, 40.707 3.144, 38.877 2.323 C 37.415 1.667, 35.866 1.526, 35.377 2.003 C 34.895 2.475, 31.665 2.522, 28.199 2.108 C 24.734 1.694, 21.665 1.733, 21.380 2.194 C 21.095 2.655, 20.427 2.764, 19.895 2.435 C 18.805 1.761, 6.693 1.306, 3.250 1.810 M 137.250 4.689 C 138.213 4.941, 139.787 4.941, 140.750 4.689 C 141.713 4.438, 140.925 4.232, 139 4.232 C 137.075 4.232, 136.287 4.438, 137.250 4.689" stroke="none" fill="black" fill-rule="evenodd"/>
	<path fill-opacity="0.033" d="M 5.613 2.183 C 5.902 2.650, 6.557 2.774, 7.069 2.457 C 8.377 1.649, 8.230 1.333, 6.544 1.333 C 5.743 1.333, 5.324 1.716, 5.613 2.183 M 10.500 2.002 C 9.072 2.614, 10.193 2.880, 14.417 2.930 C 17.671 2.968, 20.146 2.835, 19.917 2.633 C 18.834 1.678, 12.280 1.239, 10.500 2.002 M 21.480 2.032 C 21.276 2.362, 23.110 2.735, 25.555 2.862 C 28 2.989, 30 2.894, 30 2.651 C 30 1.954, 21.892 1.365, 21.480 2.032 M 35.573 1.882 C 35.337 2.263, 36.237 2.666, 37.572 2.777 C 38.907 2.887, 40 2.810, 40 2.605 C 40 1.862, 35.990 1.207, 35.573 1.882 M 56.750 5.662 C 57.438 5.940, 58.563 5.940, 59.250 5.662 C 59.938 5.385, 59.375 5.158, 58 5.158 C 56.625 5.158, 56.063 5.385, 56.750 5.662 M 7 7 C 2.545 7.693, 2.562 7.701, 8.750 7.850 C 12.350 7.936, 15 7.576, 15 7 C 15 5.922, 13.934 5.922, 7 7 M 20.768 7.168 C 21.350 7.750, 22.415 8.028, 23.137 7.788 C 23.886 7.538, 23.432 7.085, 22.080 6.731 C 20.417 6.296, 20.026 6.426, 20.768 7.168 M 36 6.987 C 34.979 7.638, 35.776 7.748, 38.500 7.330 C 43.443 6.572, 44.285 5.995, 40.417 6.015 C 38.813 6.024, 36.825 6.461, 36 6.987 M 16.813 7.683 C 17.534 7.972, 18.397 7.936, 18.729 7.604 C 19.061 7.272, 18.471 7.036, 17.417 7.079 C 16.252 7.127, 16.015 7.364, 16.813 7.683" stroke="none" fill="black" fill-rule="evenodd"/>
</svg>