<svg xmlns="http://www.w3.org/2000/svg" width="180" height="10" viewBox="0 0 180 10" version="1.1">
	<path fill-opacity="0.286" d="M 29.494 2.017 C 29.007 3.553, 27.975 4, 24.919 4 C 22.749 4, 20.065 3.437, 18.956 2.750 C 17.324 1.739, 16.781 1.754, 16.110 2.832 C 15.196 4.300, 6.442 3.524, 5.429 1.885 C 3.657 -0.982, 0.795 3.330, 2.126 6.860 C 2.954 9.054, 3.175 9.115, 5.280 7.736 C 6.525 6.920, 9.446 5.931, 11.772 5.539 C 15.267 4.948, 16 5.099, 16 6.412 C 16 8.388, 16.988 8.409, 20.636 6.506 C 24.658 4.408, 27.632 4.637, 29.414 7.181 C 30.854 9.236, 31.050 9.265, 32.800 7.681 C 35.290 5.428, 42.555 5.397, 43.414 7.636 C 43.995 9.151, 44.176 9.151, 45.850 7.636 C 48.096 5.603, 54.880 5.480, 56.390 7.444 C 57.245 8.557, 58.534 8.703, 62 8.081 C 64.475 7.637, 76.400 7.433, 88.500 7.627 C 100.600 7.821, 111.625 7.945, 113 7.901 C 114.375 7.858, 124.388 7.762, 135.250 7.688 C 146.113 7.614, 155 7.200, 155 6.768 C 155 6.336, 155.914 6.549, 157.031 7.242 C 158.709 8.282, 159.229 8.240, 160.031 7 C 160.892 5.667, 161.120 5.667, 162.076 7 C 162.922 8.179, 163.265 8.221, 163.677 7.197 C 164.070 6.221, 164.546 6.347, 165.569 7.697 C 166.369 8.752, 166.950 8.987, 166.968 8.262 C 166.986 7.581, 168.810 6.734, 171.022 6.380 C 176.306 5.536, 176.933 4.266, 172.479 3.430 C 170.511 3.061, 168.222 2.079, 167.392 1.249 C 166.044 -0.098, 165.819 -0.022, 165.302 1.954 C 164.871 3.600, 164.512 3.828, 163.903 2.843 C 163.263 1.807, 162.819 1.781, 161.876 2.724 C 160.934 3.666, 160.381 3.555, 159.354 2.215 C 158.266 0.797, 157.881 0.739, 157.131 1.878 C 156.632 2.636, 155.686 2.924, 155.028 2.517 C 154.371 2.111, 144.663 1.813, 133.454 1.855 C 119.948 1.906, 112.852 1.570, 112.413 0.859 C 111.945 0.102, 111.549 0.112, 111.065 0.894 C 110.350 2.051, 103.349 2.333, 82.500 2.043 C 75.900 1.952, 70.050 1.946, 69.500 2.031 C 66.731 2.458, 59.387 1.736, 58.585 0.958 C 58.047 0.435, 57.203 0.708, 56.536 1.621 C 55.025 3.686, 49.062 4.104, 46.232 2.342 C 44.234 1.098, 43.889 1.125, 43.335 2.569 C 42.832 3.880, 41.883 4.077, 38.603 3.554 C 36.346 3.194, 33.515 2.255, 32.312 1.467 C 30.332 0.171, 30.064 0.224, 29.494 2.017" stroke="none" fill="black" fill-rule="evenodd"/>
	<path fill-opacity="0.033" d="M 8.813 3.683 C 9.534 3.972, 10.397 3.936, 10.729 3.604 C 11.061 3.272, 10.471 3.036, 9.417 3.079 C 8.252 3.127, 8.015 3.364, 8.813 3.683" stroke="none" fill="black" fill-rule="evenodd"/>
</svg>