<svg xmlns="http://www.w3.org/2000/svg" width="180" height="10" viewBox="0 0 180 10" version="1.1">
	<path fill-opacity="0.286" d="M 9.200 2.051 C 8.531 3.123, 7.060 4, 5.933 4 C 4.798 4, 4.163 4.454, 4.510 5.016 C 4.856 5.575, 5.541 5.784, 6.033 5.480 C 6.525 5.176, 7.874 5.874, 9.030 7.030 C 10.428 8.428, 11.531 8.822, 12.317 8.203 C 14.116 6.788, 17 7.149, 17 8.789 C 17 9.970, 17.283 10.010, 18.500 9 C 19.325 8.315, 20 8.090, 20 8.500 C 20 8.910, 20.563 8.798, 21.250 8.251 C 21.938 7.704, 23.288 7.384, 24.250 7.540 C 25.212 7.696, 26 7.511, 26 7.130 C 26 6.750, 27.575 6.452, 29.499 6.469 C 32.310 6.494, 33.005 6.894, 33.033 8.500 C 33.065 10.382, 33.182 10.361, 35.033 8.139 C 36.115 6.841, 37 6.226, 37 6.773 C 37 8.137, 41.256 9.144, 42.360 8.040 C 42.885 7.515, 44.327 7.554, 45.856 8.135 C 47.639 8.813, 48.570 8.790, 48.813 8.062 C 49.402 6.295, 54 6.791, 54 8.622 C 54 9.951, 54.271 10.020, 55.500 9 C 56.325 8.315, 57.007 8.148, 57.015 8.628 C 57.024 9.107, 57.380 8.951, 57.806 8.279 C 58.744 6.804, 74 5.694, 74 7.101 C 74 7.624, 76.049 7.897, 78.554 7.708 C 81.059 7.520, 83.336 7.735, 83.615 8.186 C 83.893 8.637, 84.964 8.554, 85.995 8.003 C 88.673 6.569, 91 6.765, 91 8.423 C 91 9.632, 91.414 9.646, 93.750 8.515 C 95.263 7.783, 98.862 6.993, 101.750 6.759 C 106.438 6.381, 107 6.545, 107 8.290 C 107 9.986, 107.216 10.065, 108.636 8.888 C 110.485 7.352, 113.195 7.083, 114.116 8.342 C 114.455 8.805, 115.656 8.607, 116.785 7.902 C 118.450 6.863, 119.128 6.861, 120.375 7.896 C 121.234 8.609, 122.476 8.824, 123.189 8.383 C 124.857 7.353, 126.563 7.140, 138.500 6.479 C 144 6.174, 151.875 5.553, 156 5.098 L 163.500 4.272 154 4.059 C 148.775 3.943, 143.600 3.646, 142.500 3.400 C 141.400 3.154, 137.463 2.854, 133.750 2.732 C 130.037 2.610, 127 2.133, 127 1.672 C 127 1.211, 126.437 1.035, 125.750 1.282 C 125.062 1.528, 123.713 1.325, 122.750 0.830 C 121.700 0.290, 121 0.297, 121 0.848 C 121 2.412, 117.169 2.883, 116.596 1.389 C 115.916 -0.383, 114 -0.425, 114 1.333 C 114 2.991, 110.706 2.830, 108.583 1.069 C 107.244 -0.043, 107 0.019, 107 1.470 C 107 2.941, 106.254 3.108, 101.750 2.642 C 95.351 1.980, 93.861 1.669, 92.250 0.663 C 91.451 0.163, 91 0.444, 91 1.441 C 91 3.432, 89.060 3.431, 86.215 1.438 C 84.436 0.192, 83.883 0.142, 83.481 1.188 C 83.105 2.168, 80.002 2.500, 71.238 2.500 C 64.782 2.500, 58.938 2.136, 58.250 1.691 C 57.563 1.246, 57 1.189, 57 1.563 C 57 1.938, 56.325 1.685, 55.500 1 C 54.271 -0.020, 54 0.049, 54 1.378 C 54 3.478, 51.166 3.460, 48.829 1.345 C 47.823 0.435, 47 0.135, 47 0.678 C 47 1.964, 43.856 2.008, 42.255 0.745 C 41.407 0.077, 40.205 0.291, 38.487 1.417 C 36.244 2.886, 35.899 2.899, 35.375 1.535 C 34.618 -0.438, 33 -0.457, 33 1.507 C 33 2.709, 31.938 2.933, 27.750 2.612 C 24.862 2.391, 21.375 1.769, 20 1.228 C 18.150 0.502, 17.421 0.577, 17.197 1.516 C 16.889 2.811, 13.451 2.446, 11.459 0.906 C 10.856 0.440, 9.906 0.921, 9.200 2.051" stroke="none" fill="black" fill-rule="evenodd"/>
	<path fill-opacity="0.033" d="M 42.243 1.512 C 43.699 3.101, 44.193 3.191, 45.243 2.060 C 46.255 0.970, 46.248 0.849, 45.206 1.439 C 44.495 1.842, 43.145 1.596, 42.206 0.891 C 40.670 -0.263, 40.674 -0.201, 42.243 1.512 M 123.601 2.164 C 123.856 2.576, 124.725 2.659, 125.532 2.349 C 127.568 1.568, 127.366 1.097, 125.069 1.270 C 124.007 1.350, 123.347 1.752, 123.601 2.164 M 79.510 3.016 C 79.856 3.575, 80.557 3.774, 81.069 3.457 C 82.456 2.600, 82.198 2, 80.441 2 C 79.584 2, 79.165 2.457, 79.510 3.016 M 135.603 2.833 C 135.320 3.292, 135.723 3.667, 136.500 3.667 C 137.277 3.667, 137.680 3.292, 137.397 2.833 C 136.745 1.779, 136.255 1.779, 135.603 2.833 M 149.813 5.683 C 150.534 5.972, 151.397 5.936, 151.729 5.604 C 152.061 5.272, 151.471 5.036, 150.417 5.079 C 149.252 5.127, 149.015 5.364, 149.813 5.683 M 29.813 6.683 C 30.534 6.972, 31.397 6.936, 31.729 6.604 C 32.061 6.272, 31.471 6.036, 30.417 6.079 C 29.252 6.127, 29.015 6.364, 29.813 6.683 M 44 7.031 C 44 7.564, 44.675 8, 45.500 8 C 46.325 8, 47 7.823, 47 7.607 C 47 7.391, 46.325 6.955, 45.500 6.638 C 44.675 6.322, 44 6.499, 44 7.031 M 79 6.989 C 79 7.533, 80.093 7.887, 81.428 7.777 C 82.763 7.666, 83.637 7.221, 83.369 6.788 C 82.665 5.649, 79 5.818, 79 6.989 M 100.750 6.662 C 101.438 6.940, 102.563 6.940, 103.250 6.662 C 103.938 6.385, 103.375 6.158, 102 6.158 C 100.625 6.158, 100.063 6.385, 100.750 6.662 M 110.733 7.124 C 111.412 7.808, 112.219 8.115, 112.526 7.807 C 112.834 7.499, 112.279 6.940, 111.293 6.564 C 109.868 6.022, 109.753 6.136, 110.733 7.124" stroke="none" fill="black" fill-rule="evenodd"/>
</svg>